<svg width="71" height="60" viewBox="0 0 71 60" fill="none" xmlns="http://www.w3.org/2000/svg">
<path d="M30.0169 59.6383H34.7404V47.847C34.7404 43.7236 31.7973 40.8301 26.3835 40.8301C21.2968 40.8301 18.608 43.5066 18.2084 46.7981H23.4768C23.5858 46.5087 23.8038 46.2555 24.0582 46.0023C24.4942 45.6045 25.1845 45.1704 26.3835 45.1704C28.2366 45.1704 29.2903 46.2555 29.2903 47.8831V48.2448H25.1118C20.0251 48.2448 17.4817 50.7767 17.4817 54.2128C17.4817 57.4681 20.0251 60 24.3852 60C26.0929 60 27.4009 59.5659 28.2366 59.0234C28.7089 58.734 29.1449 58.4085 29.4719 58.0106H29.6536L30.0169 59.6383ZM29.2903 52.2235C29.2903 54.3937 27.8369 55.8405 25.4752 55.8405C23.8402 55.8405 22.9318 54.9724 22.9318 53.8511C22.9318 52.7299 23.8038 51.8618 25.8385 51.8618H29.2903V52.2235Z" fill="#6EBB00"/>
<path d="M46.8447 59.6525C54.8223 57.1344 61.9044 49.6453 64.6527 39.4307C67.5938 28.4999 64.9454 17.3784 58.6267 10.5537C60.0579 11.1274 61.4211 11.9165 62.686 12.9296C71.5755 20.0496 73.2956 35.4086 65.2298 47.3974C60.6808 54.1591 53.1168 58.5497 46.8447 59.6525Z" fill="#C3ED87"/>
<path d="M46.8445 59.6526C55.0771 57.0891 62.5707 49.6682 65.6795 39.4476C70.359 24.0632 63.8813 8.12192 51.2112 3.84171C48.3371 2.87079 45.3913 2.5833 42.4995 2.89873C43.2127 3.06385 43.9237 3.26539 44.631 3.50432C58.3522 8.13958 62.6199 25.2717 57.6683 41.5507C55.2187 49.6041 52.8751 55.8231 46.8445 59.6526Z" fill="#A2DC50"/>
<path d="M46.8467 59.6525C54.1418 55.2476 59.939 47.404 61.4498 37.1113C63.9731 19.9204 54.13 3.23706 39.6983 0.419982C29.6249 -1.54634 19.8862 3.53689 14.0647 12.6326C20.2022 9.3095 27.51 8.44429 34.6249 10.8132C49.2465 15.6816 57.5166 32.3653 53.0966 48.0774C51.839 52.5478 49.6154 56.4579 46.8467 59.6525Z" fill="#83CA20"/>
<path d="M6.99568 39.0549C-0.419497 32.6863 -1.30333 14.362 5.75088 10.1497L18.1514 8.50537C27.3514 11.7948 41.3065 13.6105 27.7914 11.7685C14.2764 9.92652 7.23958 27.9397 6.99568 39.0549Z" fill="#83CA20"/>
<path d="M6.99898 39.0548C3.02379 29.1417 5.05909 11.8416 21.4317 4.67603L31.7497 7.95389C38.8346 14.9651 48.2585 24.1291 36.4548 17.2579C24.6512 10.3868 9.87572 25.3043 6.99898 39.0548Z" fill="#A2DC50"/>
<path d="M6.99898 39.0547C5.11358 27.8085 13.4702 13.1588 32.187 9.40283L39.9055 12.1957C45.6975 21.1208 52.6683 30.3293 40.4334 22.3905C27.5421 14.0257 10.6659 25.7279 6.99898 39.0547Z" fill="#C3ED87"/>
<path d="M46.8445 59.6525C53.6089 53.4273 57.6003 43.5711 56.2987 32.9959C54.1358 15.4229 38.9659 1.96573 22.4158 2.9385C15.3538 3.35359 9.27027 6.29489 4.68237 10.9353C8.99029 9.94409 13.464 9.84037 18.0942 10.7001C37.6412 14.3297 50.993 34.3637 47.9162 55.4474C47.717 56.8123 47.1679 58.3486 46.8445 59.6525Z" fill="#6EBB00"/>
</svg>
