<svg width="71" height="60" viewBox="0 0 71 60" fill="none" xmlns="http://www.w3.org/2000/svg">
<path d="M29.9453 59.5269H34.6236V47.8484C34.6236 43.7646 31.7087 40.8987 26.3467 40.8987C21.3086 40.8987 18.6456 43.5496 18.2498 46.8096H23.4678C23.5758 46.523 23.7917 46.2722 24.0436 46.0214C24.4754 45.6274 25.1592 45.1975 26.3467 45.1975C28.182 45.1975 29.2256 46.2722 29.2256 47.8843V48.2425H25.0872C20.0491 48.2425 17.53 50.7502 17.53 54.1534C17.53 57.3775 20.0491 59.8851 24.3675 59.8851C26.0588 59.8851 27.3543 59.4553 28.182 58.9179C28.6498 58.6313 29.0817 58.3089 29.4056 57.9149H29.5855L29.9453 59.5269ZM29.2256 52.1831C29.2256 54.3325 27.7862 55.7654 25.447 55.7654C23.8277 55.7654 22.928 54.9057 22.928 53.7952C22.928 52.6846 23.7917 51.8249 25.8069 51.8249H29.2256V52.1831Z" fill="white"/>
<path d="M46.6121 59.5411C54.5133 57.0471 61.5276 49.6296 64.2497 39.5128C67.1626 28.6866 64.5396 17.6715 58.2813 10.9121C59.6988 11.4803 61.049 12.2618 62.3018 13.2653C71.1062 20.3171 72.8098 35.5292 64.8212 47.4033C60.3157 54.1003 52.8241 58.4488 46.6121 59.5411Z" fill="white"/>
<path fill-rule="evenodd" clip-rule="evenodd" d="M57.9032 10.652C58.0249 10.4752 58.2528 10.4063 58.4521 10.4861C59.9114 11.0711 61.3007 11.8754 62.5887 12.907C71.6208 20.1413 73.292 35.6346 65.202 47.6594C60.6246 54.4631 53.0225 58.8798 46.6915 59.993C46.4535 60.0349 46.2237 59.8849 46.1663 59.6501C46.1089 59.4153 46.2434 59.1762 46.4739 59.1035C54.2051 56.6632 61.1192 49.3814 63.8065 39.3936C66.6838 28.7 64.0824 17.8531 57.9446 11.2238C57.7988 11.0663 57.7816 10.8288 57.9032 10.652ZM60.023 12.2645C65.3705 19.209 67.4146 29.5161 64.6928 39.632C62.6436 47.2481 58.1865 53.3764 52.7184 57.0669C57.1004 55.0006 61.4437 51.6015 64.4405 47.1471C72.3277 35.4237 70.5916 20.4929 62.0149 13.6234C61.3753 13.1111 60.71 12.6586 60.023 12.2645Z" fill="#6EBB00"/>
<path d="M46.612 59.541C54.7658 57.0021 62.1877 49.6522 65.2668 39.5293C69.9015 24.2921 63.4858 8.50339 50.9369 4.26413C48.0904 3.3025 45.1727 3.01777 42.3086 3.33017C43.015 3.49372 43.7192 3.69333 44.4197 3.92997C58.0096 8.52088 62.2365 25.489 57.3323 41.6123C54.9061 49.5886 52.5849 55.7482 46.612 59.541Z" fill="white"/>
<path fill-rule="evenodd" clip-rule="evenodd" d="M45.0791 3.67551C51.7512 6.12082 56.1262 11.5394 58.2493 18.3091C60.4239 25.2431 60.2456 33.6117 57.7715 41.7457C55.7249 48.4741 53.7247 54.0302 49.4571 57.9408C56.2463 54.7493 62.1715 48.1289 64.8279 39.3957C69.4135 24.32 63.0358 8.83556 50.7902 4.69879C48.9058 4.0622 46.9897 3.72915 45.0791 3.67551ZM42.259 2.87389C45.1873 2.55449 48.1722 2.84562 51.084 3.82928C63.9362 8.17102 70.3899 24.2641 65.706 39.6628C62.5869 49.917 55.0609 57.3908 46.7486 59.9791C46.5289 60.0475 46.2925 59.9426 46.1958 59.7338C46.0991 59.525 46.1719 59.2769 46.3662 59.1536C52.1795 55.462 54.464 49.4657 56.8934 41.4787C59.3235 33.4895 59.4838 25.3123 57.3736 18.5837C55.2657 11.8626 50.9018 6.60397 44.273 4.36462C43.5867 4.13279 42.897 3.93729 42.2052 3.77714C41.9872 3.72665 41.8374 3.52623 41.8507 3.30281C41.864 3.0794 42.0365 2.89816 42.259 2.87389Z" fill="#6EBB00"/>
<path d="M46.6141 59.541C53.8394 55.1782 59.5811 47.4097 61.0774 37.2155C63.5767 20.1891 53.8277 3.66531 39.5341 0.875192C29.5571 -1.07232 19.9116 3.96228 14.1458 12.971C20.2246 9.67965 27.4624 8.82272 34.5093 11.169C48.991 15.9908 57.1819 32.5149 52.8042 48.0766C51.5586 52.5042 49.3563 56.3769 46.6141 59.541Z" fill="white"/>
<path fill-rule="evenodd" clip-rule="evenodd" d="M15.5151 11.7743C21.3529 9.09459 28.0861 8.54671 34.6544 10.7337C49.3902 15.6401 57.6838 32.426 53.2461 48.2009C52.2705 51.669 50.717 54.8013 48.7802 57.5264C54.7401 53.0541 59.3182 46.0422 60.6236 37.1489C63.0977 20.2937 53.4346 4.05615 39.4463 1.32563C30.2318 -0.473046 21.2716 3.81037 15.5151 11.7743ZM13.7594 12.7236C19.6059 3.58895 29.4251 -1.56561 39.6221 0.424855C54.2211 3.27458 64.056 20.0845 61.5316 37.2822C60.0149 47.6151 54.1914 55.5018 46.8515 59.9339C46.6582 60.0506 46.4088 60.0093 46.2633 59.8366C46.1179 59.664 46.1196 59.4111 46.2675 59.2405C48.9682 56.1244 51.1364 52.3111 52.3626 47.9524C56.6803 32.6039 48.592 16.3416 34.3645 11.6045C27.4434 9.30003 20.3368 10.1409 14.3644 13.3746C14.1804 13.4742 13.9523 13.4367 13.8098 13.2834C13.6673 13.1302 13.6466 12.8999 13.7594 12.7236Z" fill="#6EBB00"/>
<path d="M7.14456 39.1402C-0.199673 32.8326 -1.07505 14.6836 5.91166 10.5117L18.1935 8.88306C27.3055 12.141 41.1271 13.9394 27.7413 12.115C14.3556 10.2906 7.38613 28.1315 7.14456 39.1402Z" fill="white"/>
<path fill-rule="evenodd" clip-rule="evenodd" d="M18.1331 8.4283C18.2055 8.4187 18.2791 8.42652 18.3479 8.45111C22.8716 10.0685 28.5767 11.3271 31.5006 11.9564C31.6564 11.99 31.8046 12.0218 31.9445 12.0518C32.4565 12.1617 32.8568 12.2477 33.1091 12.3063C33.1899 12.3251 33.2595 12.342 33.3146 12.3566C33.3561 12.3676 33.4268 12.3866 33.4837 12.4125C33.4971 12.4186 33.5406 12.4385 33.5867 12.475C33.6087 12.4924 33.6584 12.5343 33.6996 12.6043C33.7456 12.6826 33.7928 12.8209 33.7405 12.9812C33.6932 13.1261 33.5918 13.2013 33.5431 13.2312C33.4912 13.2631 33.4446 13.2775 33.4221 13.2837C33.3755 13.2965 33.3361 13.2996 33.321 13.3007C33.2614 13.3048 33.1901 13.2994 33.1397 13.2952C32.7581 13.2634 31.5455 13.0978 29.2408 12.783C28.7672 12.7183 28.2474 12.6473 27.6793 12.5698C21.2432 11.6926 16.3038 15.5233 12.9048 21.0556C9.50569 26.5878 7.72241 33.7192 7.60324 39.1505C7.59934 39.3279 7.49349 39.4872 7.33142 39.5595C7.16934 39.6318 6.98011 39.6041 6.84547 39.4885C3.03626 36.2169 0.961711 29.9528 0.695486 24.0459C0.561814 21.08 0.881187 18.1655 1.68803 15.7146C2.49303 13.2692 3.8 11.2382 5.6763 10.1179C5.72987 10.0859 5.78939 10.0651 5.85124 10.0569L18.1331 8.4283ZM6.06752 10.9541C4.49037 11.9307 3.31356 13.7118 2.55978 16.0016C1.79525 18.324 1.48247 21.1232 1.61233 24.0046C1.85498 29.3884 3.63313 34.925 6.72569 38.1153C7.03126 32.6889 8.8385 25.9205 12.1228 20.5751C15.2288 15.5199 19.7155 11.6563 25.5588 11.5294C23.1457 10.9251 20.4958 10.1875 18.1438 9.35268L6.06752 10.9541Z" fill="#6EBB00"/>
<path d="M7.14783 39.1404C3.21067 29.3222 5.2265 12.1876 21.4425 5.09058L31.6618 8.33708C38.6789 15.2812 48.0125 24.3575 36.3218 17.5521C24.6312 10.7467 9.99704 25.5214 7.14783 39.1404Z" fill="white"/>
<path fill-rule="evenodd" clip-rule="evenodd" d="M21.2586 4.67009C21.3606 4.62544 21.4754 4.61941 21.5815 4.65313L31.8008 7.89964C31.87 7.92163 31.933 7.95973 31.9846 8.01081C32.2088 8.23261 32.4355 8.4568 32.664 8.68277C35.9967 11.9782 39.7116 15.6517 41.3718 17.8217C41.8081 18.392 42.1474 18.9141 42.2736 19.3224C42.3336 19.5166 42.3849 19.8082 42.2266 20.0678C42.0518 20.3547 41.7426 20.4178 41.5143 20.4186C41.2781 20.4195 41.0002 20.3588 40.6943 20.2608C40.3817 20.1605 40.0094 20.0111 39.5748 19.8119C38.7054 19.4134 37.558 18.8025 36.0911 17.9486C30.4847 14.685 24.1174 16.5538 18.7125 21.0401C13.3126 25.5223 8.9995 32.5309 7.59708 39.2343C7.55567 39.4323 7.38953 39.5798 7.18805 39.5975C6.98658 39.6152 6.79728 39.4989 6.722 39.3111C2.71896 29.3286 4.75575 11.8926 21.2586 4.67009ZM21.469 5.58036C6.44106 12.2573 3.93591 27.7634 7.05994 37.5383C8.79391 31.1016 12.9768 24.6083 18.1263 20.3339C23.6734 15.7295 30.4685 13.6136 36.5528 17.1554C38.0085 18.0028 39.1268 18.597 39.9572 18.9776C40.3725 19.168 40.7087 19.3016 40.9745 19.3868C41.1358 19.4385 41.2614 19.4691 41.3564 19.4854C41.2527 19.2422 41.0201 18.8725 40.6429 18.3794C39.0236 16.2629 35.3494 12.6293 31.9893 9.30639C31.7976 9.11676 31.6069 8.92815 31.4176 8.74088L21.469 5.58036ZM41.4143 19.674C41.4142 19.6739 41.4141 19.6727 41.4142 19.6703C41.4144 19.6728 41.4144 19.674 41.4143 19.674ZM41.551 19.4986C41.5532 19.498 41.5544 19.4978 41.5544 19.4979C41.5544 19.4979 41.5534 19.4982 41.551 19.4986Z" fill="#6EBB00"/>
<path d="M7.14786 39.1404C5.2805 28.0018 13.5571 13.4922 32.0949 9.77222L39.7395 12.5384C45.4761 21.3781 52.3802 30.4985 40.2624 22.6356C27.4944 14.3509 10.7797 25.9411 7.14786 39.1404Z" fill="white"/>
<path fill-rule="evenodd" clip-rule="evenodd" d="M32.0045 9.3222C32.0868 9.30569 32.172 9.31206 32.251 9.34061L39.8956 12.1068C39.9896 12.1408 40.0699 12.2046 40.1244 12.2885C40.7606 13.2689 41.4166 14.2609 42.0603 15.2341C42.8566 16.4382 43.634 17.6137 44.3318 18.7035C45.5929 20.6733 46.6408 22.434 47.1243 23.6849C47.2465 24.0011 47.3382 24.2985 47.3865 24.5681C47.4339 24.8327 47.446 25.1044 47.3763 25.3515C47.3012 25.6173 47.1336 25.8417 46.8661 25.9712C46.619 26.0909 46.3329 26.1072 46.0465 26.0739C45.4778 26.0077 44.7152 25.7213 43.747 25.2311C42.7668 24.7349 41.5341 24.0078 40.0125 23.0205C33.8105 18.9962 26.6292 19.7777 20.5043 23.2311C14.3719 26.6888 9.37067 32.7912 7.59021 39.262C7.53309 39.4696 7.33931 39.6096 7.12428 39.5986C6.90925 39.5876 6.73079 39.4285 6.69519 39.2162C4.78072 27.7965 13.2621 13.0833 32.0045 9.3222ZM7.37411 36.9732C6.84 26.4709 14.9681 13.7313 32.0597 10.2474L39.4385 12.9174C40.0594 13.8726 40.688 14.823 41.3029 15.7526C42.0927 16.9468 42.8599 18.1067 43.5588 19.1984C44.827 21.1791 45.8233 22.8645 46.2682 24.0158C46.3781 24.3002 46.4487 24.5381 46.4832 24.7301C46.5185 24.9272 46.5096 25.0434 46.493 25.1022C46.4829 25.1381 46.4753 25.1413 46.4684 25.1442C46.4676 25.1445 46.4668 25.1449 46.466 25.1452C46.438 25.1588 46.3497 25.1852 46.1525 25.1622C45.754 25.1159 45.1127 24.8938 44.1615 24.4123C43.2222 23.9368 42.0199 23.229 40.5121 22.2506C33.9461 17.9901 26.386 18.8613 20.0536 22.4317C14.3747 25.6336 9.62509 31.0333 7.37411 36.9732Z" fill="#6EBB00"/>
<path d="M46.612 59.541C53.3117 53.3754 57.2649 43.6135 55.9757 33.1395C53.8335 15.7346 38.8088 2.4062 22.417 3.36967C15.4226 3.78079 9.39727 6.69394 4.85327 11.29C9.11997 10.3082 13.5509 10.2055 18.1368 11.057C37.4968 14.6519 50.7208 34.4942 47.6734 55.3762C47.4761 56.728 46.9323 58.2496 46.612 59.541Z" fill="white"/>
<path fill-rule="evenodd" clip-rule="evenodd" d="M55.5204 33.1955C53.4046 16.0048 38.5688 2.87996 22.4441 3.82773C16.1376 4.19841 10.6365 6.636 6.32235 10.5217C10.165 9.83564 14.1342 9.847 18.2207 10.6058C37.8504 14.2507 51.2065 34.3449 48.1276 55.4424C48.0244 56.1495 47.8322 56.8918 47.6306 57.6059C47.5915 57.7444 47.5522 57.8814 47.5131 58.0168C53.3627 51.9246 56.7115 42.8723 55.5204 33.1955ZM22.3903 2.91153C39.0491 1.93237 54.2627 15.4643 56.4313 33.0834C57.7386 43.7047 53.7312 53.6131 46.9229 59.8786C46.7739 60.0158 46.5525 60.039 46.3782 59.9358C46.204 59.8325 46.118 59.6272 46.1668 59.4305C46.2796 58.9756 46.421 58.4877 46.5628 57.9988C46.625 57.784 46.6874 57.569 46.7473 57.3566C46.9471 56.649 47.1254 55.9546 47.2195 55.3099C50.2354 34.6434 37.1435 15.0529 18.0532 11.5082C13.5277 10.6678 9.16031 10.7698 4.95633 11.7371C4.75735 11.7829 4.55206 11.6917 4.45263 11.5134C4.3532 11.3351 4.38356 11.1125 4.52711 10.9673C9.14815 6.29334 15.2791 3.32951 22.3903 2.91153Z" fill="#6EBB00"/>
</svg>
