<svg width="123" height="61" viewBox="0 0 123 61" fill="none" xmlns="http://www.w3.org/2000/svg">
<path d="M102.66 49.5393C109.168 47.4852 114.945 41.376 117.187 33.0436C119.586 24.1268 117.426 15.0545 112.271 9.4873C113.439 9.95529 114.551 10.599 115.583 11.4254C122.834 17.2335 124.238 29.7625 117.658 39.5423C113.947 45.0581 107.777 48.6397 102.66 49.5393Z" fill="#6EBB00"/>
<path fill-rule="evenodd" clip-rule="evenodd" d="M111.96 9.27316C112.06 9.12752 112.248 9.07077 112.412 9.13655C113.614 9.61835 114.758 10.2808 115.819 11.1305C123.258 17.0888 124.634 29.8494 117.971 39.7534C114.201 45.3571 107.94 48.9948 102.726 49.9116C102.53 49.9461 102.34 49.8226 102.293 49.6292C102.246 49.4358 102.357 49.2389 102.546 49.179C108.914 47.1691 114.609 41.1716 116.822 32.9454C119.192 24.1379 117.049 15.2042 111.994 9.74413C111.874 9.61442 111.86 9.4188 111.96 9.27316ZM113.706 10.6012C118.11 16.3209 119.794 24.8101 117.552 33.1418C115.864 39.4146 112.193 44.462 107.69 47.5016C111.299 45.7998 114.876 43.0001 117.344 39.3314C123.84 29.6757 122.41 17.3784 115.346 11.7205C114.82 11.2985 114.272 10.9258 113.706 10.6012Z" fill="white"/>
<path d="M102.66 49.5395C109.376 47.4484 115.489 41.3948 118.025 33.0574C121.842 20.5077 116.558 7.50366 106.222 4.01211C103.878 3.22009 101.475 2.98558 99.116 3.24288C99.6978 3.37758 100.278 3.54198 100.855 3.73689C112.048 7.51807 115.529 21.4935 111.49 34.7729C109.492 41.3424 107.58 46.4156 102.66 49.5395Z" fill="#6EBB00"/>
<path fill-rule="evenodd" clip-rule="evenodd" d="M101.398 3.52741C106.893 5.54143 110.496 10.0043 112.245 15.58C114.036 21.291 113.889 28.1835 111.851 34.883C110.166 40.4246 108.518 45.0008 105.004 48.2216C110.595 45.593 115.475 40.1403 117.663 32.9474C121.44 20.5307 116.187 7.77735 106.102 4.3702C104.55 3.84589 102.971 3.57158 101.398 3.52741ZM99.075 2.86718C101.487 2.60411 103.945 2.8439 106.343 3.65406C116.929 7.23002 122.244 20.4846 118.387 33.1674C115.818 41.613 109.619 47.7686 102.773 49.9004C102.592 49.9567 102.397 49.8703 102.317 49.6984C102.238 49.5264 102.298 49.3221 102.458 49.2205C107.246 46.18 109.127 41.2413 111.128 34.663C113.13 28.0829 113.262 21.348 111.524 15.8062C109.788 10.2705 106.193 5.93936 100.734 4.09498C100.169 3.90403 99.6005 3.74302 99.0307 3.61111C98.8512 3.56953 98.7278 3.40446 98.7387 3.22045C98.7497 3.03644 98.8918 2.88717 99.075 2.86718Z" fill="white"/>
<path d="M102.662 49.5393C108.613 45.946 113.342 39.5477 114.574 31.1515C116.633 17.1281 108.603 3.51878 96.8308 1.22077C88.6136 -0.383245 80.6693 3.76337 75.9204 11.1831C80.9271 8.47234 86.8884 7.76655 92.6923 9.69901C104.62 13.6704 111.366 27.28 107.76 40.097C106.735 43.7437 104.921 46.9333 102.662 49.5393Z" fill="#6EBB00"/>
<path fill-rule="evenodd" clip-rule="evenodd" d="M77.0481 10.1976C81.8563 7.99052 87.4019 7.53927 92.8117 9.34051C104.948 13.3816 111.779 27.2068 108.124 40.1994C107.321 43.0558 106.041 45.6357 104.446 47.8801C109.355 44.1966 113.125 38.4214 114.201 31.0967C116.238 17.2144 108.28 3.84075 96.7585 1.59182C89.1692 0.110388 81.7893 3.63831 77.0481 10.1976ZM75.6021 10.9795C80.4174 3.45594 88.5047 -0.789476 96.9033 0.849921C108.927 3.19702 117.028 17.0421 114.948 31.2065C113.699 39.717 108.903 46.2126 102.858 49.863C102.698 49.9591 102.493 49.9251 102.373 49.7829C102.253 49.6407 102.255 49.4324 102.377 49.2919C104.601 46.7254 106.387 43.5847 107.397 39.9947C110.953 27.3534 104.291 13.9594 92.5729 10.0577C86.8725 8.15972 81.0194 8.85226 76.1004 11.5156C75.9488 11.5977 75.7609 11.5668 75.6436 11.4406C75.5263 11.3143 75.5092 11.1247 75.6021 10.9795Z" fill="white"/>
<path d="M70.1537 32.737C64.1048 27.5418 63.3838 12.5939 69.1382 9.15779L79.2538 7.81641C86.7587 10.4997 98.1425 11.9809 87.1176 10.4783C76.0928 8.9757 70.3526 23.6699 70.1537 32.737Z" fill="#6EBB00"/>
<path fill-rule="evenodd" clip-rule="evenodd" d="M79.2042 7.44176C79.2638 7.43385 79.3245 7.44029 79.3811 7.46054C83.1069 8.79267 87.8058 9.82926 90.2139 10.3476C90.3423 10.3752 90.4644 10.4014 90.5796 10.4262C91.0013 10.5167 91.331 10.5875 91.5388 10.6358C91.6053 10.6513 91.6626 10.6652 91.708 10.6772C91.7422 10.6863 91.8004 10.7019 91.8473 10.7233C91.8583 10.7283 91.8941 10.7447 91.9321 10.7747C91.9502 10.789 91.9912 10.8236 92.0251 10.8812C92.063 10.9457 92.1019 11.0596 92.0588 11.1916C92.0198 11.311 91.9363 11.3729 91.8962 11.3975C91.8535 11.4238 91.8151 11.4356 91.7965 11.4408C91.7582 11.4514 91.7258 11.4539 91.7133 11.4547C91.6642 11.4582 91.6054 11.4537 91.564 11.4503C91.2496 11.4241 90.2509 11.2876 88.3528 11.0284C87.9627 10.9751 87.5346 10.9166 87.0666 10.8528C81.7657 10.1303 77.6976 13.2854 74.898 17.8419C72.0984 22.3984 70.6297 28.272 70.5315 32.7453C70.5283 32.8914 70.4411 33.0226 70.3077 33.0821C70.1742 33.1417 70.0183 33.1189 69.9074 33.0237C66.7701 30.3291 65.0614 25.1698 64.8421 20.3048C64.732 17.862 64.9951 15.4616 65.6596 13.4429C66.3226 11.4288 67.3991 9.75609 68.9445 8.83331C68.9886 8.80697 69.0376 8.7899 69.0885 8.78314L79.2042 7.44176ZM69.2667 9.52204C67.9677 10.3264 66.9985 11.7934 66.3776 13.6793C65.7479 15.5921 65.4903 17.8976 65.5973 20.2707C65.7971 24.705 67.2617 29.2651 69.8088 31.8926C70.0604 27.4234 71.5489 21.8488 74.2539 17.4462C76.8121 13.2826 80.5075 10.1005 85.3202 9.99587C83.3327 9.49816 81.1502 8.89068 79.213 8.2031L69.2667 9.52204Z" fill="white"/>
<path d="M70.1564 32.7369C66.9136 24.6504 68.5739 10.5379 81.9298 4.69263L90.3466 7.36653C96.1261 13.0859 103.814 20.5613 94.1848 14.9562C84.556 9.35113 72.503 21.52 70.1564 32.7369Z" fill="#6EBB00"/>
<path fill-rule="evenodd" clip-rule="evenodd" d="M81.7783 4.34641C81.8623 4.30963 81.9569 4.30467 82.0443 4.33244L90.4611 7.00634C90.5181 7.02445 90.57 7.05583 90.6125 7.0979C90.7971 7.28059 90.9839 7.46523 91.1721 7.65134C93.9169 10.3656 96.9767 13.3912 98.344 15.1784C98.7033 15.6481 98.9828 16.0781 99.0868 16.4144C99.1362 16.5743 99.1784 16.8145 99.0481 17.0283C98.9041 17.2646 98.6494 17.3166 98.4614 17.3172C98.2669 17.318 98.038 17.268 97.7861 17.1873C97.5285 17.1047 97.222 16.9816 96.864 16.8176C96.1479 16.4894 95.2029 15.9862 93.9947 15.2829C89.3772 12.5949 84.1329 14.1341 79.6813 17.8291C75.2338 21.5208 71.6814 27.2932 70.5264 32.8143C70.4923 32.9774 70.3554 33.0989 70.1895 33.1134C70.0235 33.128 69.8676 33.0322 69.8056 32.8776C66.5086 24.6557 68.1862 10.2951 81.7783 4.34641ZM81.9516 5.09612C69.5742 10.5954 67.5109 23.3666 70.084 31.4174C71.5121 26.116 74.9572 20.768 79.1985 17.2475C83.7672 13.4552 89.3638 11.7125 94.375 14.6296C95.574 15.3276 96.495 15.8169 97.179 16.1304C97.521 16.2872 97.7979 16.3973 98.0168 16.4674C98.1497 16.51 98.2531 16.5352 98.3314 16.5486C98.2459 16.3483 98.0544 16.0439 97.7437 15.6377C96.41 13.8945 93.3838 10.9018 90.6164 8.16497C90.4585 8.00879 90.3014 7.85344 90.1455 7.69921L81.9516 5.09612ZM98.379 16.704C98.379 16.7039 98.3789 16.7029 98.379 16.701C98.3791 16.703 98.3791 16.704 98.379 16.704ZM98.4916 16.5595C98.4934 16.559 98.4944 16.5589 98.4944 16.5589C98.4945 16.559 98.4936 16.5592 98.4916 16.5595Z" fill="white"/>
<path d="M70.1566 32.7369C68.6186 23.5629 75.4354 11.6125 90.7036 8.54858L96.9999 10.8269C101.725 18.1074 107.411 25.6192 97.4305 19.1432C86.9145 12.3197 73.1479 21.8656 70.1566 32.7369Z" fill="#6EBB00"/>
<path fill-rule="evenodd" clip-rule="evenodd" d="M90.6292 8.17804C90.6969 8.16444 90.7671 8.16969 90.8321 8.19321L97.1284 10.4715C97.2059 10.4995 97.272 10.552 97.3169 10.6211C97.8409 11.4286 98.3812 12.2456 98.9113 13.0472C99.5672 14.0389 100.208 15.0071 100.782 15.9047C101.821 17.5271 102.684 18.9772 103.082 20.0075C103.183 20.2679 103.258 20.5129 103.298 20.735C103.337 20.9528 103.347 21.1767 103.29 21.3801C103.228 21.5991 103.09 21.7839 102.869 21.8906C102.666 21.9891 102.43 22.0026 102.194 21.9751C101.726 21.9206 101.098 21.6847 100.301 21.281C99.4933 20.8723 98.4779 20.2734 97.2247 19.4603C92.1166 16.1458 86.2019 16.7895 81.1573 19.6337C76.1065 22.4815 71.9874 27.5077 70.5209 32.8372C70.4739 33.0082 70.3143 33.1235 70.1372 33.1144C69.9601 33.1053 69.8131 32.9743 69.7838 32.7994C68.207 23.394 75.1925 11.2758 90.6292 8.17804ZM70.343 30.9521C69.9031 22.3021 76.5975 11.8095 90.6746 8.94006L96.7519 11.1391C97.2633 11.9259 97.7811 12.7087 98.2875 13.4743C98.9381 14.4579 99.5699 15.4131 100.146 16.3123C101.19 17.9437 102.011 19.3318 102.377 20.28C102.468 20.5143 102.526 20.7102 102.554 20.8683C102.583 21.0307 102.576 21.1264 102.562 21.1748C102.554 21.2044 102.548 21.207 102.542 21.2094C102.541 21.2097 102.541 21.21 102.54 21.2103C102.517 21.2214 102.444 21.2432 102.282 21.2243C101.954 21.1861 101.425 21.0032 100.642 20.6066C99.8683 20.215 98.8781 19.632 97.6362 18.8261C92.2283 15.3171 86.0016 16.0346 80.7861 18.9753C76.1088 21.6125 72.1969 26.0598 70.343 30.9521Z" fill="white"/>
<path d="M102.66 49.5394C108.178 44.4612 111.434 36.4211 110.373 27.7944C108.608 13.4594 96.2334 2.48178 82.7328 3.27531C76.972 3.61392 72.0094 6.01326 68.2668 9.79866C71.781 8.99007 75.4304 8.90546 79.2075 9.60679C95.1528 12.5676 106.044 28.9102 103.535 46.1091C103.372 47.2225 102.924 48.4757 102.66 49.5394Z" fill="#6EBB00"/>
<path fill-rule="evenodd" clip-rule="evenodd" d="M109.997 27.8407C108.255 13.682 96.0357 2.87207 82.755 3.65268C77.5608 3.95799 73.0299 5.96564 69.4767 9.166C72.6416 8.60094 75.9107 8.6103 79.2765 9.23527C95.444 12.2373 106.444 28.7874 103.909 46.1637C103.824 46.7462 103.665 47.3575 103.499 47.9457C103.467 48.0597 103.435 48.1726 103.402 48.2841C108.22 43.2664 110.978 35.8107 109.997 27.8407ZM82.7106 2.89808C96.4312 2.09162 108.962 13.2369 110.748 27.7483C111.824 36.4963 108.524 44.6571 102.916 49.8176C102.794 49.9305 102.611 49.9497 102.468 49.8646C102.324 49.7795 102.253 49.6104 102.294 49.4485C102.386 49.0738 102.503 48.6719 102.62 48.2693C102.671 48.0924 102.722 47.9153 102.772 47.7403C102.936 47.1576 103.083 46.5856 103.161 46.0546C105.645 29.0332 94.8617 12.898 79.1385 9.97846C75.4112 9.28637 71.8141 9.37035 68.3516 10.1671C68.1877 10.2048 68.0187 10.1297 67.9368 9.98278C67.8549 9.8359 67.8799 9.65259 67.9981 9.533C71.8041 5.68342 76.8537 3.24234 82.7106 2.89808Z" fill="white"/>
<path d="M10.2273 60.2038H14.0811V50.5507C14.0811 47.1751 11.6799 44.8062 7.26288 44.8062C3.11266 44.8062 0.918977 46.9974 0.592888 49.692H4.89133C4.98026 49.4551 5.15813 49.2478 5.36564 49.0406C5.72137 48.7148 6.28462 48.3595 7.26288 48.3595C8.77475 48.3595 9.63444 49.2478 9.63444 50.5803V50.8764H6.22533C2.07511 50.8764 0 52.9492 0 55.7622C0 58.4271 2.07511 60.4999 5.63244 60.4999C7.02573 60.4999 8.09293 60.1445 8.77475 59.7004C9.16013 59.4635 9.51586 59.197 9.78266 58.8713H9.93088L10.2273 60.2038ZM9.63444 54.1336C9.63444 55.9102 8.44866 57.0947 6.52177 57.0947C5.18777 57.0947 4.44666 56.384 4.44666 55.4661C4.44666 54.5481 5.15813 53.8375 6.81822 53.8375H9.63444V54.1336Z" fill="#6EBB00"/>
<path d="M28.6196 60.2038H32.4734V39.4763H28.0267V46.2868H27.8785C27.6117 46.0203 27.3152 45.7538 26.9595 45.5465C26.337 45.1912 25.3587 44.8062 24.0247 44.8062C20.0227 44.8062 16.7618 48.0634 16.7618 52.6531C16.7618 57.2427 20.0227 60.4999 24.0247 60.4999C25.5366 60.4999 26.5148 60.0557 27.1967 59.6116C27.582 59.3451 27.9081 59.049 28.1749 58.7232H28.3232L28.6196 60.2038ZM24.6176 56.3544C22.6907 56.3544 21.2085 54.9035 21.2085 52.6531C21.2085 50.4026 22.6907 48.9517 24.6176 48.9517C26.5445 48.9517 28.0267 50.4026 28.0267 52.6531C28.0267 54.9035 26.5445 56.3544 24.6176 56.3544Z" fill="#6EBB00"/>
<path d="M36.1754 60.2038H40.6221V45.1023H36.1754V60.2038Z" fill="#6EBB00"/>
<path d="M44.1655 54.2816C44.1655 57.983 46.6853 60.4999 50.2427 60.4999C51.6359 60.4999 52.7031 60.1445 53.385 59.7004C53.7703 59.4635 54.1261 59.197 54.3929 58.8713H54.5411L54.8375 60.2038H58.6913V45.1023H54.2446V53.3933C54.2446 55.0515 53.0885 56.2063 51.4284 56.2063C49.7683 56.2063 48.6122 55.0515 48.6122 53.3933V45.1023H44.1655V54.2816Z" fill="#6EBB00"/>
<path d="M63.7413 56.0583C63.7413 58.7528 65.1939 60.2038 68.0397 60.2038H71.5971V56.0583H69.2255C68.5437 56.0583 68.1879 55.703 68.1879 55.0219V49.2478H71.5971V45.1023H68.1879V40.3646H63.7413V45.1023H61.3697V49.2478H63.7413V56.0583Z" fill="#6EBB00"/>
<path d="M81.3878 60.4999C85.9827 60.4999 89.2436 57.2427 89.2436 52.6531C89.2436 48.0634 85.9827 44.8062 81.3878 44.8062C76.7929 44.8062 73.532 48.0634 73.532 52.6531C73.532 57.2427 76.7929 60.4999 81.3878 60.4999ZM81.3878 56.3544C79.4609 56.3544 77.9787 54.9035 77.9787 52.6531C77.9787 50.4026 79.4609 48.9517 81.3878 48.9517C83.3147 48.9517 84.7969 50.4026 84.7969 52.6531C84.7969 54.9035 83.3147 56.3544 81.3878 56.3544Z" fill="#6EBB00"/>
<path d="M40.7961 40.9666C40.7961 42.3114 39.7047 43.4017 38.3583 43.4017C37.0119 43.4017 35.9204 42.3114 35.9204 40.9666C35.9204 39.6217 37.0119 38.5315 38.3583 38.5315C39.7047 38.5315 40.7961 39.6217 40.7961 40.9666Z" fill="#6EBB00"/>
</svg>
